…
```r
find.outliers <- election %>%
  dplyr::select (
    unique(fips_county_code), population_2014, votes
  ) %>%
  ungroup %>%
  arrange(desc(
    population_2014
  )) %>%
  print(n = 10)
```

```
## # A tibble: 8,307 × 3
##    fips_county_code population_2014  votes
##               <dbl>           <dbl>  <dbl>
## 1              6037        10116705 434656
## 2              6037        10116705 590502
## 3              6037        10116705 179130
## 4             48201         4441370  63246
## 5             48201         4441370 156729
## 6             48201         4441370  79793
## 7              4013         4087191  86942
## 8              4013         4087191 126988
## 9              4013         4087191 144522
## 10             6073         3263431 111898
## # ... with 8,297 more rows
```
…
